.....................
----------------------------------------------------------------------
Ran 21 tests in 0.705s

OK
Name             Stmts   Miss Branch BrPart  Cover   Missing
------------------------------------------------------------
Collatz.py           2      0      0      0   100%
TestCollatz.py      87      0      0      0   100%
------------------------------------------------------------
TOTAL               89      0      0      0   100%
