1 10 20
100 200 125
201 210 89
900 1000 174
1 1 1
10 1 20
50 50 25
100 100 26
90 80 111
70 60 108
45 40 110
123 120 96
60 60 20
50 60 113
120 130 122
90 90 18
123 123 47
12 12 10
999990 999999 259
999999 999999 259
31 30 107
30 31 107
12 15 18
15 12 18
31 40 107
40 40 9
100 100 26
110 120 114
120 130 122
130 120 122
30 40 107
40 45 110
500 510 111
789 789 29
980 980 24
990 1000 112
386 396 121
482 482 23
362 362 20
42 40 110
103 105 88
275 285 105
469 460 129
403 403 20
231 230 128
534 544 137
471 481 129
713 710 65
521 515 124
317 356 144
974 965 143
446 446 72
224 224 22
638 640 132
947 940 130
481 481 49
342 345 126
876 880 148
37 45 110
976 980 99
693 690 127
764 765 47
863 864 117
108 110 114
284 285 105
774 784 153
710 720 65
321 321 25
601 611 132
412 425 134
914 915 130
969 979 143
729 739 140
901 901 55
540 550 137
476 486 98
251 261 123
798 790 122
714 713 34
246 246 48
2 5 8
334 334 69
610 620 132
728 738 140
493 483 142
246 250 110
134 140 91
127 137 122
62 72 108
267 257 123
828 830 135
897 900 117
982 972 143
116 117 21
756 756 109
586 586 119
317 327 144
589 599 119
112 115 34
185 195 120
844 854 60
684 684 127
849 849 60
488 488 23
269 270 43
226 236 128
