..........................
----------------------------------------------------------------------
Ran 26 tests in 0.979s

OK
Name             Stmts   Miss Branch BrPart  Cover   Missing
------------------------------------------------------------
Collatz.py          69      0     20      1    99%   119->133
TestCollatz.py     113      0      0      0   100%
------------------------------------------------------------
TOTAL              182      0     20      1    99%

